\relax 
\catcode`:\active
\catcode`;\active
\catcode`!\active
\catcode`?\active
\select@language{french}
\@writefile{toc}{\select@language{french}}
\@writefile{lof}{\select@language{french}}
\@writefile{lot}{\select@language{french}}
\@writefile{toc}{\sectbegin }
\@writefile{toc}{\sectbegin }
\@writefile{lof}{\contentsline {xsect}{OCaml RobotWar}{3}}
\@writefile{lot}{\contentsline {xsect}{OCaml RobotWar}{3}}
\@writefile{toc}{\contentsline {section}{\numberline {1}OCaml RobotWar}{3}}
\@writefile{toc}{\sectbegin }
\@writefile{toc}{\sectbegin }
\@writefile{toc}{\sectbegin }
\@writefile{toc}{\sectbegin }
\@writefile{toc}{\sectbegin }
\@writefile{toc}{\sectbegin }
\@writefile{toc}{\sectbegin }
\@writefile{toc}{\sectbegin }
\@writefile{lof}{\contentsline {figure}{\numberline {1}{\ignorespaces Grille d'\'evaluation}}{4}}
\@writefile{lof}{\contentsline {xsect}{OCaml Ray}{5}}
\@writefile{lot}{\contentsline {xsect}{OCaml Ray}{5}}
\@writefile{toc}{\contentsline {section}{\numberline {2}OCaml Ray}{5}}
\@writefile{toc}{\sectbegin }
\@writefile{toc}{\sectbegin }
\@writefile{toc}{\sectbegin }
\@writefile{toc}{\sectbegin }
\@writefile{toc}{\sectbegin }
\@writefile{toc}{\sectbegin }
\@writefile{toc}{\sectbegin }
\@writefile{toc}{\sectbegin }
\@writefile{toc}{\sectbegin }
\@writefile{lof}{\contentsline {figure}{\numberline {2}{\ignorespaces Grille d'\'evaluation}}{6}}
\@writefile{lof}{\contentsline {xsect}{OCaml ZeRace}{7}}
\@writefile{lot}{\contentsline {xsect}{OCaml ZeRace}{7}}
\@writefile{toc}{\contentsline {section}{\numberline {3}OCaml ZeRace}{7}}
\@writefile{toc}{\sectbegin }
\@writefile{toc}{\sectbegin }
\@writefile{toc}{\sectbegin }
\@writefile{toc}{\sectbegin }
\@writefile{toc}{\sectbegin }
\@writefile{toc}{\sectbegin }
\@writefile{toc}{\sectbegin }
\@writefile{toc}{\sectbegin }
\@writefile{lof}{\contentsline {xsect}{OCaml Optimiz}{9}}
\@writefile{lot}{\contentsline {xsect}{OCaml Optimiz}{9}}
\@writefile{toc}{\contentsline {section}{\numberline {4}OCaml Optimiz}{9}}
\@writefile{toc}{\sectbegin }
\@writefile{toc}{\sectbegin }
\@writefile{toc}{\sectbegin }
\@writefile{toc}{\sectbegin }
\@writefile{toc}{\sectbegin }
\@writefile{toc}{\sectbegin }
\@writefile{toc}{\sectbegin }
\@writefile{lof}{\contentsline {xsect}{OCaml Domino}{11}}
\@writefile{lot}{\contentsline {xsect}{OCaml Domino}{11}}
\@writefile{toc}{\contentsline {section}{\numberline {5}OCaml Domino}{11}}
\@writefile{toc}{\sectbegin }
\@writefile{toc}{\sectbegin }
\@writefile{toc}{\sectbegin }
\@writefile{toc}{\sectbegin }
\@writefile{toc}{\sectbegin }
\@writefile{toc}{\sectbegin }
\@writefile{toc}{\sectbegin }
\@writefile{lof}{\contentsline {xsect}{CAOCaml}{13}}
\@writefile{lot}{\contentsline {xsect}{CAOCaml}{13}}
\@writefile{toc}{\contentsline {section}{\numberline {6}CAOCaml}{13}}
\@writefile{toc}{\sectbegin }
\@writefile{toc}{\sectbegin }
\@writefile{toc}{\sectbegin }
\@writefile{toc}{\sectbegin }
\@writefile{toc}{\sectbegin }
\@writefile{toc}{\sectbegin }
\@writefile{lof}{\contentsline {xsect}{GeOCaml GUI}{14}}
\@writefile{lot}{\contentsline {xsect}{GeOCaml GUI}{14}}
\@writefile{toc}{\contentsline {section}{\numberline {7}GeOCaml GUI}{14}}
\@writefile{toc}{\sectbegin }
\@writefile{toc}{\sectbegin }
\@writefile{toc}{\sectbegin }
\@writefile{toc}{\sectbegin }
\@writefile{toc}{\sectbegin }
\@writefile{toc}{\sectbegin }
\@writefile{lof}{\contentsline {xsect}{GeOCaml Preuve}{16}}
\@writefile{lot}{\contentsline {xsect}{GeOCaml Preuve}{16}}
\@writefile{toc}{\contentsline {section}{\numberline {8}GeOCaml Preuve}{16}}
\@writefile{toc}{\sectbegin }
\@writefile{toc}{\sectbegin }
\@writefile{toc}{\sectbegin }
\@writefile{toc}{\sectbegin }
\@writefile{toc}{\sectbegin }
\@writefile{lof}{\contentsline {xsect}{GeOCaml Animation}{17}}
\@writefile{lot}{\contentsline {xsect}{GeOCaml Animation}{17}}
\@writefile{toc}{\contentsline {section}{\numberline {9}GeOCaml Animation}{17}}
\@writefile{toc}{\sectbegin }
\@writefile{toc}{\sectbegin }
\@writefile{toc}{\sectbegin }
\@writefile{toc}{\sectbegin }
\@writefile{toc}{\sectbegin }
\@writefile{toc}{\sectbegin }
\@writefile{toc}{\sectbegin }
\@writefile{lof}{\contentsline {xsect}{HeVeA XML}{19}}
\@writefile{lot}{\contentsline {xsect}{HeVeA XML}{19}}
\@writefile{toc}{\contentsline {section}{\numberline {10}HeVeA XML}{19}}
\@writefile{toc}{\sectbegin }
\@writefile{toc}{\sectbegin }
\@writefile{toc}{\sectbegin }
\@writefile{toc}{\sectbegin }
\@writefile{toc}{\sectbegin }
\@writefile{toc}{\sectbegin }
\@writefile{lof}{\contentsline {xsect}{HeVeA XHTML}{21}}
\@writefile{lot}{\contentsline {xsect}{HeVeA XHTML}{21}}
\@writefile{toc}{\contentsline {section}{\numberline {11}HeVeA XHTML}{21}}
\@writefile{toc}{\sectbegin }
\@writefile{toc}{\sectbegin }
\@writefile{toc}{\sectbegin }
\@writefile{toc}{\sectbegin }
\@writefile{toc}{\sectbegin }
\@writefile{toc}{\sectbegin }
\@writefile{lof}{\contentsline {xsect}{Mode (X)Emacs pour B}{23}}
\@writefile{lot}{\contentsline {xsect}{Mode (X)Emacs pour B}{23}}
\@writefile{toc}{\contentsline {section}{\numberline {12}Mode (X)Emacs pour B}{23}}
\@writefile{toc}{\sectbegin }
\@writefile{toc}{\sectbegin }
\@writefile{toc}{\contentsline {paragraph}{La m\'ethode B}{23}}
\@writefile{toc}{\contentsline {paragraph}{Le projet \IeC {\guillemotleft } BRILLANT \IeC {\guillemotright }}{23}}
\@writefile{toc}{\sectbegin }
\@writefile{toc}{\sectbegin }
\@writefile{toc}{\sectbegin }
\@writefile{toc}{\sectbegin }
\@writefile{toc}{\sectbegin }
\@writefile{lof}{\contentsline {xsect}{Mod\'elisation Linux Processus}{25}}
\@writefile{lot}{\contentsline {xsect}{Mod\'elisation Linux Processus}{25}}
\@writefile{toc}{\contentsline {section}{\numberline {13}Mod\'elisation Linux Processus}{25}}
\@writefile{toc}{\sectbegin }
\@writefile{toc}{\sectbegin }
\@writefile{toc}{\contentsline {paragraph}{La m\'ethode B}{25}}
\@writefile{toc}{\sectbegin }
\@writefile{toc}{\sectbegin }
\@writefile{toc}{\sectbegin }
\@writefile{toc}{\sectbegin }
\@writefile{toc}{\sectbegin }
\@writefile{lof}{\contentsline {xsect}{Mod\'elisation Linux Gestion m\'emoire}{27}}
\@writefile{lot}{\contentsline {xsect}{Mod\'elisation Linux Gestion m\'emoire}{27}}
\@writefile{toc}{\contentsline {section}{\numberline {14}Mod\'elisation Linux Gestion m\'emoire}{27}}
\@writefile{toc}{\sectbegin }
\@writefile{toc}{\sectbegin }
\@writefile{toc}{\contentsline {paragraph}{La m\'ethode B}{27}}
\@writefile{toc}{\sectbegin }
\@writefile{toc}{\sectbegin }
\@writefile{toc}{\sectbegin }
\@writefile{toc}{\sectbegin }
\@writefile{toc}{\sectbegin }
\@writefile{lof}{\contentsline {xsect}{Radio-couloir}{29}}
\@writefile{lot}{\contentsline {xsect}{Radio-couloir}{29}}
\@writefile{toc}{\contentsline {section}{\numberline {15}Radio-couloir}{29}}
\@writefile{toc}{\sectbegin }
\@writefile{toc}{\sectbegin }
\@writefile{toc}{\sectbegin }
\@writefile{toc}{\sectbegin }
\@writefile{toc}{\sectbegin }
\@writefile{toc}{\sectbegin }
\newlabel{LastPage}{{}{30}}
