\select@language {french}
\sectbegin 
\sectbegin 
\contentsline {section}{\numberline {1}OCaml RobotWar}{3}
\sectbegin 
\sectbegin 
\sectbegin 
\sectbegin 
\sectbegin 
\sectbegin 
\sectbegin 
\sectbegin 
\contentsline {section}{\numberline {2}OCaml Ray}{5}
\sectbegin 
\sectbegin 
\sectbegin 
\sectbegin 
\sectbegin 
\sectbegin 
\sectbegin 
\sectbegin 
\sectbegin 
\contentsline {section}{\numberline {3}OCaml ZeRace}{7}
\sectbegin 
\sectbegin 
\sectbegin 
\sectbegin 
\sectbegin 
\sectbegin 
\sectbegin 
\sectbegin 
\contentsline {section}{\numberline {4}OCaml Optimiz}{9}
\sectbegin 
\sectbegin 
\sectbegin 
\sectbegin 
\sectbegin 
\sectbegin 
\sectbegin 
\contentsline {section}{\numberline {5}OCaml Domino}{11}
\sectbegin 
\sectbegin 
\sectbegin 
\sectbegin 
\sectbegin 
\sectbegin 
\sectbegin 
\contentsline {section}{\numberline {6}CAOCaml}{13}
\sectbegin 
\sectbegin 
\sectbegin 
\sectbegin 
\sectbegin 
\sectbegin 
\contentsline {section}{\numberline {7}GeOCaml GUI}{14}
\sectbegin 
\sectbegin 
\sectbegin 
\sectbegin 
\sectbegin 
\sectbegin 
\contentsline {section}{\numberline {8}GeOCaml Preuve}{16}
\sectbegin 
\sectbegin 
\sectbegin 
\sectbegin 
\sectbegin 
\contentsline {section}{\numberline {9}GeOCaml Animation}{17}
\sectbegin 
\sectbegin 
\sectbegin 
\sectbegin 
\sectbegin 
\sectbegin 
\sectbegin 
\contentsline {section}{\numberline {10}HeVeA XML}{19}
\sectbegin 
\sectbegin 
\sectbegin 
\sectbegin 
\sectbegin 
\sectbegin 
\contentsline {section}{\numberline {11}HeVeA XHTML}{21}
\sectbegin 
\sectbegin 
\sectbegin 
\sectbegin 
\sectbegin 
\sectbegin 
\contentsline {section}{\numberline {12}Mode (X)Emacs pour B}{23}
\sectbegin 
\sectbegin 
\contentsline {paragraph}{La m\'ethode B}{23}
\contentsline {paragraph}{Le projet \IeC {\guillemotleft } BRILLANT \IeC {\guillemotright }}{23}
\sectbegin 
\sectbegin 
\sectbegin 
\sectbegin 
\sectbegin 
\contentsline {section}{\numberline {13}Mod\'elisation Linux Processus}{25}
\sectbegin 
\sectbegin 
\contentsline {paragraph}{La m\'ethode B}{25}
\sectbegin 
\sectbegin 
\sectbegin 
\sectbegin 
\sectbegin 
\contentsline {section}{\numberline {14}Mod\'elisation Linux Gestion m\'emoire}{27}
\sectbegin 
\sectbegin 
\contentsline {paragraph}{La m\'ethode B}{27}
\sectbegin 
\sectbegin 
\sectbegin 
\sectbegin 
\sectbegin 
\contentsline {section}{\numberline {15}Radio-couloir}{29}
\sectbegin 
\sectbegin 
\sectbegin 
\sectbegin 
\sectbegin 
\sectbegin 
